module go_basics

go 1.17

require (
	github.com/davecgh/go-spew v1.1.1
	github.com/rs/zerolog v1.28.0
)

require (
	github.com/mattn/go-colorable v0.1.12 // indirect
	github.com/mattn/go-isatty v0.0.14 // indirect
	golang.org/x/sys v0.0.0-20210927094055-39ccf1dd6fa6 // indirect
)
